bus_test/simulation/qsim/bus_test.msim.vcd
$comment
	File created using the following command:
		vcd file bus_test.msim.vcd -direction
$end
$date
	Sun Mar 06 01:18:30 2022
$end
$version
	ModelSim Version 2020.1
$end
$timescale
	1ps
$end

$scope module simple_sdc_sm_vhd_vec_tst $end
$var wire 1 ! avs_s0_address [7] $end
$var wire 1 " avs_s0_address [6] $end
$var wire 1 # avs_s0_address [5] $end
$var wire 1 $ avs_s0_address [4] $end
$var wire 1 % avs_s0_address [3] $end
$var wire 1 & avs_s0_address [2] $end
$var wire 1 ' avs_s0_address [1] $end
$var wire 1 ( avs_s0_address [0] $end
$var wire 1 ) avs_s0_read_target_synapse_addr $end
$var wire 1 * avs_s0_readdata_target_synapse_addr [7] $end
$var wire 1 + avs_s0_readdata_target_synapse_addr [6] $end
$var wire 1 , avs_s0_readdata_target_synapse_addr [5] $end
$var wire 1 - avs_s0_readdata_target_synapse_addr [4] $end
$var wire 1 . avs_s0_readdata_target_synapse_addr [3] $end
$var wire 1 / avs_s0_readdata_target_synapse_addr [2] $end
$var wire 1 0 avs_s0_readdata_target_synapse_addr [1] $end
$var wire 1 1 avs_s0_readdata_target_synapse_addr [0] $end
$var wire 1 2 avs_s0_waitrequest $end
$var wire 1 3 clk $end
$var wire 1 4 rst $end

$scope module i1 $end
$var wire 1 5 gnd $end
$var wire 1 6 vcc $end
$var wire 1 7 unknown $end
$var wire 1 8 devoe $end
$var wire 1 9 devclrn $end
$var wire 1 : devpor $end
$var wire 1 ; ww_devoe $end
$var wire 1 < ww_devclrn $end
$var wire 1 = ww_devpor $end
$var wire 1 > ww_clk $end
$var wire 1 ? ww_rst $end
$var wire 1 @ ww_avs_s0_address [7] $end
$var wire 1 A ww_avs_s0_address [6] $end
$var wire 1 B ww_avs_s0_address [5] $end
$var wire 1 C ww_avs_s0_address [4] $end
$var wire 1 D ww_avs_s0_address [3] $end
$var wire 1 E ww_avs_s0_address [2] $end
$var wire 1 F ww_avs_s0_address [1] $end
$var wire 1 G ww_avs_s0_address [0] $end
$var wire 1 H ww_avs_s0_waitrequest $end
$var wire 1 I ww_avs_s0_read_target_synapse_addr $end
$var wire 1 J ww_avs_s0_readdata_target_synapse_addr [7] $end
$var wire 1 K ww_avs_s0_readdata_target_synapse_addr [6] $end
$var wire 1 L ww_avs_s0_readdata_target_synapse_addr [5] $end
$var wire 1 M ww_avs_s0_readdata_target_synapse_addr [4] $end
$var wire 1 N ww_avs_s0_readdata_target_synapse_addr [3] $end
$var wire 1 O ww_avs_s0_readdata_target_synapse_addr [2] $end
$var wire 1 P ww_avs_s0_readdata_target_synapse_addr [1] $end
$var wire 1 Q ww_avs_s0_readdata_target_synapse_addr [0] $end
$var wire 1 R \~QUARTUS_CREATED_GND~I_combout\ $end
$var wire 1 S \clk~input_o\ $end
$var wire 1 T \clk~inputCLKENA0_outclk\ $end
$var wire 1 U \avs_s0_address[5]~input_o\ $end
$var wire 1 V \avs_s0_address[4]~input_o\ $end
$var wire 1 W \avs_s0_address[3]~input_o\ $end
$var wire 1 X \avs_s0_address[2]~input_o\ $end
$var wire 1 Y \avs_s0_address[1]~input_o\ $end
$var wire 1 Z \avs_s0_address[0]~input_o\ $end
$var wire 1 [ \avs_s0_address[7]~input_o\ $end
$var wire 1 \ \Add0~34_cout\ $end
$var wire 1 ] \Add0~2\ $end
$var wire 1 ^ \Add0~6\ $end
$var wire 1 _ \Add0~10\ $end
$var wire 1 ` \Add0~14\ $end
$var wire 1 a \Add0~17_sumout\ $end
$var wire 1 b \Add0~13_sumout\ $end
$var wire 1 c \avs_s0_address[6]~input_o\ $end
$var wire 1 d \Add0~18\ $end
$var wire 1 e \Add0~21_sumout\ $end
$var wire 1 f \Add0~9_sumout\ $end
$var wire 1 g \Add0~5_sumout\ $end
$var wire 1 h \Add0~1_sumout\ $end
$var wire 1 i \Equal0~0_combout\ $end
$var wire 1 j \Add0~22\ $end
$var wire 1 k \Add0~25_sumout\ $end
$var wire 1 l \Add0~26\ $end
$var wire 1 m \Add0~29_sumout\ $end
$var wire 1 n \avs_s0_read_target_synapse_addr~input_o\ $end
$var wire 1 o \state~0_combout\ $end
$var wire 1 p \rst~input_o\ $end
$var wire 1 q \state~q\ $end
$var wire 1 r \index~0_combout\ $end
$var wire 1 s \index[0]~1_combout\ $end
$var wire 1 t \Equal0~1_combout\ $end
$var wire 1 u \Add1~5_sumout\ $end
$var wire 1 v \internal_ram.raddr_a[0]~0_combout\ $end
$var wire 1 w \index~2_combout\ $end
$var wire 1 x \Add1~6\ $end
$var wire 1 y \Add1~9_sumout\ $end
$var wire 1 z \index~32_combout\ $end
$var wire 1 { \index[1]~38_combout\ $end
$var wire 1 | \Add1~10\ $end
$var wire 1 } \Add1~13_sumout\ $end
$var wire 1 ~ \internal_ram.raddr_a[2]~1_combout\ $end
$var wire 1 !! \index~3_combout\ $end
$var wire 1 "! \Add1~14\ $end
$var wire 1 #! \Add1~17_sumout\ $end
$var wire 1 $! \internal_ram.raddr_a[3]~2_combout\ $end
$var wire 1 %! \index~4_combout\ $end
$var wire 1 &! \Add1~18\ $end
$var wire 1 '! \Add1~125_sumout\ $end
$var wire 1 (! \index~31_combout\ $end
$var wire 1 )! \Add1~126\ $end
$var wire 1 *! \Add1~121_sumout\ $end
$var wire 1 +! \index~30_combout\ $end
$var wire 1 ,! \Add1~122\ $end
$var wire 1 -! \Add1~117_sumout\ $end
$var wire 1 .! \index~29_combout\ $end
$var wire 1 /! \Add1~118\ $end
$var wire 1 0! \Add1~113_sumout\ $end
$var wire 1 1! \index~28_combout\ $end
$var wire 1 2! \Add1~114\ $end
$var wire 1 3! \Add1~109_sumout\ $end
$var wire 1 4! \index~27_combout\ $end
$var wire 1 5! \Add1~110\ $end
$var wire 1 6! \Add1~105_sumout\ $end
$var wire 1 7! \index~26_combout\ $end
$var wire 1 8! \Add1~106\ $end
$var wire 1 9! \Add1~101_sumout\ $end
$var wire 1 :! \index~25_combout\ $end
$var wire 1 ;! \Add1~102\ $end
$var wire 1 <! \Add1~97_sumout\ $end
$var wire 1 =! \index~24_combout\ $end
$var wire 1 >! \Add1~98\ $end
$var wire 1 ?! \Add1~93_sumout\ $end
$var wire 1 @! \index~23_combout\ $end
$var wire 1 A! \Add1~94\ $end
$var wire 1 B! \Add1~89_sumout\ $end
$var wire 1 C! \index~22_combout\ $end
$var wire 1 D! \Add1~90\ $end
$var wire 1 E! \Add1~85_sumout\ $end
$var wire 1 F! \index~21_combout\ $end
$var wire 1 G! \Add1~86\ $end
$var wire 1 H! \Add1~81_sumout\ $end
$var wire 1 I! \index~20_combout\ $end
$var wire 1 J! \Add1~82\ $end
$var wire 1 K! \Add1~77_sumout\ $end
$var wire 1 L! \index~19_combout\ $end
$var wire 1 M! \Add1~78\ $end
$var wire 1 N! \Add1~73_sumout\ $end
$var wire 1 O! \index~18_combout\ $end
$var wire 1 P! \Add1~74\ $end
$var wire 1 Q! \Add1~69_sumout\ $end
$var wire 1 R! \index~17_combout\ $end
$var wire 1 S! \Add1~70\ $end
$var wire 1 T! \Add1~65_sumout\ $end
$var wire 1 U! \index~16_combout\ $end
$var wire 1 V! \Add1~66\ $end
$var wire 1 W! \Add1~61_sumout\ $end
$var wire 1 X! \index~15_combout\ $end
$var wire 1 Y! \Add1~62\ $end
$var wire 1 Z! \Add1~57_sumout\ $end
$var wire 1 [! \index~14_combout\ $end
$var wire 1 \! \Add1~58\ $end
$var wire 1 ]! \Add1~53_sumout\ $end
$var wire 1 ^! \index~13_combout\ $end
$var wire 1 _! \Add1~54\ $end
$var wire 1 `! \Add1~49_sumout\ $end
$var wire 1 a! \index~12_combout\ $end
$var wire 1 b! \Add1~50\ $end
$var wire 1 c! \Add1~45_sumout\ $end
$var wire 1 d! \index~11_combout\ $end
$var wire 1 e! \Add1~46\ $end
$var wire 1 f! \Add1~41_sumout\ $end
$var wire 1 g! \index~10_combout\ $end
$var wire 1 h! \Add1~42\ $end
$var wire 1 i! \Add1~37_sumout\ $end
$var wire 1 j! \index~9_combout\ $end
$var wire 1 k! \Add1~38\ $end
$var wire 1 l! \Add1~33_sumout\ $end
$var wire 1 m! \index~8_combout\ $end
$var wire 1 n! \Add1~34\ $end
$var wire 1 o! \Add1~29_sumout\ $end
$var wire 1 p! \index~7_combout\ $end
$var wire 1 q! \Add1~30\ $end
$var wire 1 r! \Add1~25_sumout\ $end
$var wire 1 s! \index~6_combout\ $end
$var wire 1 t! \Add1~26\ $end
$var wire 1 u! \Add1~21_sumout\ $end
$var wire 1 v! \index~5_combout\ $end
$var wire 1 w! \Add1~22\ $end
$var wire 1 x! \Add1~1_sumout\ $end
$var wire 1 y! \avs_s0_waitrequest~0_combout\ $end
$var wire 1 z! \avs_s0_waitrequest~reg0_q\ $end
$var wire 1 {! \internal_ram~3_combout\ $end
$var wire 1 |! \internal_ram~0_combout\ $end
$var wire 1 }! \avs_s0_readdata_target_synapse_addr~0_combout\ $end
$var wire 1 ~! \avs_s0_readdata_target_synapse_addr[0]~1_combout\ $end
$var wire 1 !" \avs_s0_readdata_target_synapse_addr[0]~reg0_q\ $end
$var wire 1 "" \internal_ram~4_combout\ $end
$var wire 1 #" \internal_ram~1_combout\ $end
$var wire 1 $" \avs_s0_readdata_target_synapse_addr~2_combout\ $end
$var wire 1 %" \avs_s0_readdata_target_synapse_addr[1]~reg0_q\ $end
$var wire 1 &" \internal_ram~5_combout\ $end
$var wire 1 '" \internal_ram~2_combout\ $end
$var wire 1 (" \avs_s0_readdata_target_synapse_addr~3_combout\ $end
$var wire 1 )" \avs_s0_readdata_target_synapse_addr[2]~reg0_q\ $end
$var wire 1 *" \avs_s0_readdata_target_synapse_addr~7_combout\ $end
$var wire 1 +" \avs_s0_readdata_target_synapse_addr~4_combout\ $end
$var wire 1 ," \avs_s0_readdata_target_synapse_addr[3]~reg0_q\ $end
$var wire 1 -" \avs_s0_readdata_target_synapse_addr~5_combout\ $end
$var wire 1 ." \avs_s0_readdata_target_synapse_addr~6_combout\ $end
$var wire 1 /" \avs_s0_readdata_target_synapse_addr[4]~reg0_q\ $end
$var wire 1 0" index [31] $end
$var wire 1 1" index [30] $end
$var wire 1 2" index [29] $end
$var wire 1 3" index [28] $end
$var wire 1 4" index [27] $end
$var wire 1 5" index [26] $end
$var wire 1 6" index [25] $end
$var wire 1 7" index [24] $end
$var wire 1 8" index [23] $end
$var wire 1 9" index [22] $end
$var wire 1 :" index [21] $end
$var wire 1 ;" index [20] $end
$var wire 1 <" index [19] $end
$var wire 1 =" index [18] $end
$var wire 1 >" index [17] $end
$var wire 1 ?" index [16] $end
$var wire 1 @" index [15] $end
$var wire 1 A" index [14] $end
$var wire 1 B" index [13] $end
$var wire 1 C" index [12] $end
$var wire 1 D" index [11] $end
$var wire 1 E" index [10] $end
$var wire 1 F" index [9] $end
$var wire 1 G" index [8] $end
$var wire 1 H" index [7] $end
$var wire 1 I" index [6] $end
$var wire 1 J" index [5] $end
$var wire 1 K" index [4] $end
$var wire 1 L" index [3] $end
$var wire 1 M" index [2] $end
$var wire 1 N" index [1] $end
$var wire 1 O" index [0] $end
$var wire 1 P" \ALT_INV_avs_s0_address[7]~input_o\ $end
$var wire 1 Q" \ALT_INV_avs_s0_address[6]~input_o\ $end
$var wire 1 R" \ALT_INV_avs_s0_address[5]~input_o\ $end
$var wire 1 S" \ALT_INV_avs_s0_address[4]~input_o\ $end
$var wire 1 T" \ALT_INV_avs_s0_address[3]~input_o\ $end
$var wire 1 U" \ALT_INV_avs_s0_address[2]~input_o\ $end
$var wire 1 V" \ALT_INV_avs_s0_address[1]~input_o\ $end
$var wire 1 W" \ALT_INV_avs_s0_address[0]~input_o\ $end
$var wire 1 X" \ALT_INV_rst~input_o\ $end
$var wire 1 Y" \ALT_INV_avs_s0_read_target_synapse_addr~input_o\ $end
$var wire 1 Z" \ALT_INV_avs_s0_readdata_target_synapse_addr~7_combout\ $end
$var wire 1 [" \ALT_INV_internal_ram~5_combout\ $end
$var wire 1 \" \ALT_INV_internal_ram~4_combout\ $end
$var wire 1 ]" \ALT_INV_internal_ram~3_combout\ $end
$var wire 1 ^" ALT_INV_index [31] $end
$var wire 1 _" ALT_INV_index [30] $end
$var wire 1 `" ALT_INV_index [29] $end
$var wire 1 a" ALT_INV_index [28] $end
$var wire 1 b" ALT_INV_index [27] $end
$var wire 1 c" ALT_INV_index [26] $end
$var wire 1 d" ALT_INV_index [25] $end
$var wire 1 e" ALT_INV_index [24] $end
$var wire 1 f" ALT_INV_index [23] $end
$var wire 1 g" ALT_INV_index [22] $end
$var wire 1 h" ALT_INV_index [21] $end
$var wire 1 i" ALT_INV_index [20] $end
$var wire 1 j" ALT_INV_index [19] $end
$var wire 1 k" ALT_INV_index [18] $end
$var wire 1 l" ALT_INV_index [17] $end
$var wire 1 m" ALT_INV_index [16] $end
$var wire 1 n" ALT_INV_index [15] $end
$var wire 1 o" ALT_INV_index [14] $end
$var wire 1 p" ALT_INV_index [13] $end
$var wire 1 q" ALT_INV_index [12] $end
$var wire 1 r" ALT_INV_index [11] $end
$var wire 1 s" ALT_INV_index [10] $end
$var wire 1 t" ALT_INV_index [9] $end
$var wire 1 u" ALT_INV_index [8] $end
$var wire 1 v" ALT_INV_index [7] $end
$var wire 1 w" ALT_INV_index [6] $end
$var wire 1 x" ALT_INV_index [5] $end
$var wire 1 y" ALT_INV_index [4] $end
$var wire 1 z" ALT_INV_index [3] $end
$var wire 1 {" ALT_INV_index [2] $end
$var wire 1 |" ALT_INV_index [1] $end
$var wire 1 }" ALT_INV_index [0] $end
$var wire 1 ~" \ALT_INV_Equal0~1_combout\ $end
$var wire 1 !# \ALT_INV_avs_s0_readdata_target_synapse_addr~5_combout\ $end
$var wire 1 "# \ALT_INV_internal_ram~2_combout\ $end
$var wire 1 ## \ALT_INV_internal_ram~1_combout\ $end
$var wire 1 $# \ALT_INV_internal_ram~0_combout\ $end
$var wire 1 %# \ALT_INV_internal_ram.raddr_a[3]~2_combout\ $end
$var wire 1 &# \ALT_INV_internal_ram.raddr_a[2]~1_combout\ $end
$var wire 1 '# \ALT_INV_internal_ram.raddr_a[0]~0_combout\ $end
$var wire 1 (# \ALT_INV_Equal0~0_combout\ $end
$var wire 1 )# \ALT_INV_state~q\ $end
$var wire 1 *# \ALT_INV_avs_s0_waitrequest~reg0_q\ $end
$var wire 1 +# \ALT_INV_index~32_combout\ $end
$var wire 1 ,# \ALT_INV_Add1~125_sumout\ $end
$var wire 1 -# \ALT_INV_Add1~121_sumout\ $end
$var wire 1 .# \ALT_INV_Add1~117_sumout\ $end
$var wire 1 /# \ALT_INV_Add1~113_sumout\ $end
$var wire 1 0# \ALT_INV_Add1~109_sumout\ $end
$var wire 1 1# \ALT_INV_Add1~105_sumout\ $end
$var wire 1 2# \ALT_INV_Add1~101_sumout\ $end
$var wire 1 3# \ALT_INV_Add1~97_sumout\ $end
$var wire 1 4# \ALT_INV_Add1~93_sumout\ $end
$var wire 1 5# \ALT_INV_Add1~89_sumout\ $end
$var wire 1 6# \ALT_INV_Add1~85_sumout\ $end
$var wire 1 7# \ALT_INV_Add1~81_sumout\ $end
$var wire 1 8# \ALT_INV_Add1~77_sumout\ $end
$var wire 1 9# \ALT_INV_Add1~73_sumout\ $end
$var wire 1 :# \ALT_INV_Add1~69_sumout\ $end
$var wire 1 ;# \ALT_INV_Add1~65_sumout\ $end
$var wire 1 <# \ALT_INV_Add1~61_sumout\ $end
$var wire 1 =# \ALT_INV_Add1~57_sumout\ $end
$var wire 1 ># \ALT_INV_Add1~53_sumout\ $end
$var wire 1 ?# \ALT_INV_Add1~49_sumout\ $end
$var wire 1 @# \ALT_INV_Add1~45_sumout\ $end
$var wire 1 A# \ALT_INV_Add1~41_sumout\ $end
$var wire 1 B# \ALT_INV_Add1~37_sumout\ $end
$var wire 1 C# \ALT_INV_Add1~33_sumout\ $end
$var wire 1 D# \ALT_INV_Add1~29_sumout\ $end
$var wire 1 E# \ALT_INV_Add1~25_sumout\ $end
$var wire 1 F# \ALT_INV_Add1~21_sumout\ $end
$var wire 1 G# \ALT_INV_Add1~17_sumout\ $end
$var wire 1 H# \ALT_INV_Add1~13_sumout\ $end
$var wire 1 I# \ALT_INV_Add1~9_sumout\ $end
$var wire 1 J# \ALT_INV_Add1~5_sumout\ $end
$var wire 1 K# \ALT_INV_Add0~29_sumout\ $end
$var wire 1 L# \ALT_INV_Add0~25_sumout\ $end
$var wire 1 M# \ALT_INV_Add0~21_sumout\ $end
$var wire 1 N# \ALT_INV_Add0~17_sumout\ $end
$var wire 1 O# \ALT_INV_Add0~13_sumout\ $end
$var wire 1 P# \ALT_INV_Add0~9_sumout\ $end
$var wire 1 Q# \ALT_INV_Add0~5_sumout\ $end
$var wire 1 R# \ALT_INV_Add0~1_sumout\ $end
$var wire 1 S# \ALT_INV_Add1~1_sumout\ $end
$upscope $end
$upscope $end
$enddefinitions $end
#0
$dumpvars
0)
02
03
04
05
16
x7
18
19
1:
1;
1<
1=
0>
0?
0H
0I
xR
0S
0T
0U
0V
0W
0X
0Y
0Z
0[
0\
0]
0^
0_
0`
0a
0b
0c
0d
0e
0f
0g
0h
1i
0j
0k
0l
0m
0n
0o
0p
0q
0r
0s
1t
0u
0v
0w
1x
1y
1z
0{
1|
1}
0~
0!!
1"!
1#!
0$!
0%!
1&!
1'!
0(!
1)!
1*!
0+!
1,!
1-!
0.!
1/!
10!
01!
12!
13!
04!
15!
16!
07!
18!
19!
0:!
1;!
1<!
0=!
1>!
1?!
0@!
1A!
1B!
0C!
1D!
1E!
0F!
1G!
1H!
0I!
1J!
1K!
0L!
1M!
1N!
0O!
1P!
1Q!
0R!
1S!
1T!
0U!
1V!
1W!
0X!
1Y!
1Z!
0[!
1\!
1]!
0^!
1_!
1`!
0a!
1b!
1c!
0d!
1e!
1f!
0g!
1h!
1i!
0j!
1k!
1l!
0m!
1n!
1o!
0p!
1q!
1r!
0s!
1t!
1u!
0v!
1w!
1x!
0y!
0z!
0{!
0|!
0}!
1~!
0!"
0""
0#"
0$"
0%"
0&"
0'"
0("
0)"
0*"
0+"
0,"
0-"
0."
0/"
1P"
1Q"
1R"
1S"
1T"
1U"
1V"
1W"
1X"
1Y"
1Z"
1["
1\"
1]"
0~"
1!#
1"#
1##
1$#
1%#
1&#
1'#
0(#
1)#
1*#
0+#
0,#
0-#
0.#
0/#
00#
01#
02#
03#
04#
05#
06#
07#
08#
09#
0:#
0;#
0<#
0=#
0>#
0?#
0@#
0A#
0B#
0C#
0D#
0E#
0F#
0G#
0H#
0I#
1J#
1K#
1L#
1M#
1N#
1O#
1P#
1Q#
1R#
0S#
0!
0"
0#
0$
0%
0&
0'
0(
0@
0A
0B
0C
0D
0E
0F
0G
0J
0K
0L
0M
0N
0O
0P
0Q
00"
01"
02"
03"
04"
05"
06"
07"
08"
09"
0:"
0;"
0<"
0="
0>"
0?"
0@"
0A"
0B"
0C"
0D"
0E"
0F"
0G"
0H"
0I"
0J"
0K"
0L"
0M"
0N"
0O"
1^"
1_"
1`"
1a"
1b"
1c"
1d"
1e"
1f"
1g"
1h"
1i"
1j"
1k"
1l"
1m"
1n"
1o"
1p"
1q"
1r"
1s"
1t"
1u"
1v"
1w"
1x"
1y"
1z"
1{"
1|"
1}"
0*
0+
0,
0-
0.
0/
00
01
$end
#5000
13
1>
1S
1T
#10000
03
14
0>
1?
1p
0S
0T
0X"
0~!
#15000
13
1>
1S
1T
#20000
03
04
0>
0?
0p
0S
0T
1X"
1~!
#25000
13
1>
1S
1T
#30000
03
0>
0S
0T
#35000
13
1>
1S
1T
#40000
03
1)
1&
1(
0>
1I
1G
1E
1X
1Z
1n
0S
0T
0Y"
0W"
0U"
1g
1~
1v
1{!
1&"
1s
0["
0]"
0'#
0&#
0Q#
0i
0t
1|!
1'"
0"#
0$#
1~"
1(#
1o
1r
1(!
1+!
1.!
11!
14!
17!
1:!
1=!
1@!
1C!
1F!
1I!
1L!
1O!
1R!
1U!
1X!
1[!
1^!
1a!
1d!
1g!
1j!
1m!
1p!
1s!
1v!
1y!
0z
1%!
1}!
1("
1+#
1{
#45000
13
1>
1S
1T
1q
10"
1N"
1L"
1K"
1J"
1I"
1H"
1G"
1F"
1E"
1D"
1C"
1B"
1A"
1@"
1?"
1>"
1="
1<"
1;"
1:"
19"
18"
17"
16"
15"
14"
13"
12"
11"
1z!
1!"
1)"
0*#
0_"
0`"
0a"
0b"
0c"
0d"
0e"
0f"
0g"
0h"
0i"
0j"
0k"
0l"
0m"
0n"
0o"
0p"
0q"
0r"
0s"
0t"
0u"
0v"
0w"
0x"
0y"
0z"
0|"
0^"
0)#
0o
0r
0v
1z
1$!
0(!
0+!
0.!
01!
04!
07!
0:!
0=!
0@!
0C!
0F!
0I!
0L!
0O!
0R!
0U!
0X!
0[!
0^!
0a!
0d!
0g!
0j!
0m!
0p!
0s!
0v!
0}!
0~!
1#"
0("
0x!
0y
0#!
0'!
0*!
0-!
00!
03!
06!
09!
0<!
0?!
0B!
0E!
0H!
0K!
0N!
0Q!
0T!
0W!
0Z!
0]!
0`!
0c!
0f!
0i!
0l!
0o!
0r!
0u!
1F#
1E#
1D#
1C#
1B#
1A#
1@#
1?#
1>#
1=#
1<#
1;#
1:#
19#
18#
17#
16#
15#
14#
13#
12#
11#
10#
1/#
1.#
1-#
1,#
1G#
1I#
1S#
0##
0%#
0+#
1'#
1O
1Q
1H
1w
1*"
0{
0%!
1o
1r
0y!
1}!
1~!
1$"
1("
0z
0$!
0|!
0#"
1(!
1+!
1.!
11!
14!
17!
1:!
1=!
1@!
1C!
1F!
1I!
1L!
1O!
1R!
1U!
1X!
1[!
1^!
1a!
1d!
1g!
1j!
1m!
1p!
1s!
1v!
11
1/
12
1##
1$#
1%#
1+#
0Z"
1{
1%!
0}!
0$"
#50000
03
0)
0&
0(
0>
0I
0G
0E
0X
0Z
0n
0S
0T
1Y"
1W"
1U"
0g
0{!
0&"
1["
1]"
1Q#
1i
1t
0~"
0(#
#55000
13
1>
1S
1T
1O"
0z!
0!"
1*#
0}"
1u
0x
0J#
0Q
0H
1y
0|
1v
1|!
0I#
01
02
0}
0$#
0'#
1z
1#"
1-"
1H#
0w
0*"
1}!
0!#
0##
0+#
0~
0'"
1Z"
0{
1$"
1"#
1&#
1!!
0("
#60000
03
0>
0S
0T
#65000
13
1>
1S
1T
0O"
0N"
1M"
1!"
1%"
0)"
0{"
1|"
1}"
0u
1x
0y
1|
1}
0"!
0H#
1I#
1J#
0O
1P
1Q
1#!
0&!
0}
1"!
1y
0v
0z
0-"
1~
0|!
0#"
1'"
0I#
1H#
0G#
11
10
0/
0#!
1&!
1'!
0)!
0"#
1##
1$#
0&#
1!#
1+#
1'#
1$!
0~
1z
1#"
0'"
1+"
0,#
1G#
1w
1*"
1{
0!!
0}!
0$"
1("
1*!
0,!
0'!
1)!
1"#
0##
0+#
1&#
0%#
0$!
0+"
0(!
1,#
0-#
0Z"
0%!
1!!
0{
1$"
0("
0*!
1,!
1-!
0/!
1%#
0+!
1(!
0.#
1-#
1%!
10!
02!
0-!
1/!
1+!
0.!
1.#
0/#
00!
12!
13!
05!
01!
1.!
00#
1/#
16!
08!
03!
15!
11!
04!
10#
01#
06!
18!
19!
0;!
07!
14!
02#
11#
1<!
0>!
09!
1;!
17!
0:!
12#
03#
0<!
1>!
1?!
0A!
0=!
1:!
04#
13#
1B!
0D!
0?!
1A!
1=!
0@!
14#
05#
0B!
1D!
1E!
0G!
0C!
1@!
06#
15#
1H!
0J!
0E!
1G!
1C!
0F!
16#
07#
0H!
1J!
1K!
0M!
0I!
1F!
08#
17#
1N!
0P!
0K!
1M!
1I!
0L!
18#
09#
0N!
1P!
1Q!
0S!
0O!
1L!
0:#
19#
1T!
0V!
0Q!
1S!
1O!
0R!
1:#
0;#
0T!
1V!
1W!
0Y!
0U!
1R!
0<#
1;#
1Z!
0\!
0W!
1Y!
1U!
0X!
1<#
0=#
0Z!
1\!
1]!
0_!
0[!
1X!
0>#
1=#
1`!
0b!
0]!
1_!
1[!
0^!
1>#
0?#
0`!
1b!
1c!
0e!
0a!
1^!
0@#
1?#
1f!
0h!
0c!
1e!
1a!
0d!
1@#
0A#
0f!
1h!
1i!
0k!
0g!
1d!
0B#
1A#
1l!
0n!
0i!
1k!
1g!
0j!
1B#
0C#
0l!
1n!
1o!
0q!
0m!
1j!
0D#
1C#
1r!
0t!
0o!
1q!
1m!
0p!
1D#
0E#
0r!
1t!
1u!
0w!
0s!
1p!
0F#
1E#
1x!
0u!
1w!
1s!
0v!
1F#
0S#
0x!
0o
0r
0~!
0$"
1v!
1S#
1o
1r
1~!
1$"
#70000
03
0>
0S
0T
#75000
13
1>
1S
1T
1O"
0!"
0}"
1u
0x
0J#
0Q
0y
1v
1|!
1-"
1I#
01
0!#
0$#
0'#
0z
0#"
0-"
0w
0*"
1}!
1!#
1##
1+#
1Z"
1{
0$"
#80000
03
0>
0S
0T
#85000
13
1>
1S
1T
0O"
1N"
1!"
0%"
0|"
1}"
0u
1x
1y
0|
0I#
1J#
0P
1Q
1}
0"!
0y
1|
0v
1z
0|!
1#"
1I#
0H#
11
00
0}
1"!
1#!
0&!
0##
1$#
0+#
1'#
1~
0z
0#"
1'"
0G#
1H#
1w
1*"
0{
0}!
1$"
1'!
0)!
0#!
1&!
0"#
1##
1+#
0&#
0~
1$!
0'"
1+"
1G#
0,#
0Z"
0!!
1{
0$"
1("
0'!
1)!
1*!
0,!
1"#
0%#
1&#
0(!
0$!
0+"
0-#
1,#
1!!
0%!
0("
1-!
0/!
0*!
1,!
1%#
1(!
0+!
1-#
0.#
1%!
0-!
1/!
10!
02!
0.!
1+!
0/#
1.#
13!
05!
00!
12!
1.!
01!
1/#
00#
03!
15!
16!
08!
04!
11!
01#
10#
19!
0;!
06!
18!
14!
07!
11#
02#
09!
1;!
1<!
0>!
0:!
17!
03#
12#
1?!
0A!
0<!
1>!
1:!
0=!
13#
04#
0?!
1A!
1B!
0D!
0@!
1=!
05#
14#
1E!
0G!
0B!
1D!
1@!
0C!
15#
06#
0E!
1G!
1H!
0J!
0F!
1C!
07#
16#
1K!
0M!
0H!
1J!
1F!
0I!
17#
08#
0K!
1M!
1N!
0P!
0L!
1I!
09#
18#
1Q!
0S!
0N!
1P!
1L!
0O!
19#
0:#
0Q!
1S!
1T!
0V!
0R!
1O!
0;#
1:#
1W!
0Y!
0T!
1V!
1R!
0U!
1;#
0<#
0W!
1Y!
1Z!
0\!
0X!
1U!
0=#
1<#
1]!
0_!
0Z!
1\!
1X!
0[!
1=#
0>#
0]!
1_!
1`!
0b!
0^!
1[!
0?#
1>#
1c!
0e!
0`!
1b!
1^!
0a!
1?#
0@#
0c!
1e!
1f!
0h!
0d!
1a!
0A#
1@#
1i!
0k!
0f!
1h!
1d!
0g!
1A#
0B#
0i!
1k!
1l!
0n!
0j!
1g!
0C#
1B#
1o!
0q!
0l!
1n!
1j!
0m!
1C#
0D#
0o!
1q!
1r!
0t!
0p!
1m!
0E#
1D#
1u!
0w!
0r!
1t!
1p!
0s!
1E#
0F#
0u!
1w!
1x!
0v!
1s!
0S#
1F#
0x!
1v!
0o
0r
0~!
1S#
1o
1r
1~!
#90000
03
0>
0S
0T
#95000
13
1>
1S
1T
1O"
0!"
0}"
1u
0x
0J#
0Q
1y
0|
1v
1|!
0I#
01
1}
0"!
0$#
0'#
1z
1#"
1-"
0H#
0w
0*"
1}!
1#!
0&!
0!#
0##
0+#
1~
1'"
0G#
1Z"
0{
1$"
1'!
0)!
0"#
0&#
1$!
0|!
0#"
0'"
0,#
0!!
1("
1*!
0,!
1"#
1##
1$#
0%#
0(!
0-#
0%!
1."
0}!
0$"
0("
1-!
0/!
0+!
0.#
10!
02!
0.!
0/#
13!
05!
01!
00#
16!
08!
04!
01#
19!
0;!
07!
02#
1<!
0>!
0:!
03#
1?!
0A!
0=!
04#
1B!
0D!
0@!
05#
1E!
0G!
0C!
06#
1H!
0J!
0F!
07#
1K!
0M!
0I!
08#
1N!
0P!
0L!
09#
1Q!
0S!
0O!
0:#
1T!
0V!
0R!
0;#
1W!
0Y!
0U!
0<#
1Z!
0\!
0X!
0=#
1]!
0_!
0[!
0>#
1`!
0b!
0^!
0?#
1c!
0e!
0a!
0@#
1f!
0h!
0d!
0A#
1i!
0k!
0g!
0B#
1l!
0n!
0j!
0C#
1o!
0q!
0m!
0D#
1r!
0t!
0p!
0E#
1u!
0w!
0s!
0F#
1x!
0v!
0S#
0o
0r
0~!
0."
#100000
03
0>
0S
0T
