bus_test/simulation/qsim/bus_test.msim.vcd
$comment
	File created using the following command:
		vcd file bus_test.msim.vcd -direction
$end
$date
	Sat Mar 05 00:24:19 2022
$end
$version
	ModelSim Version 2020.1
$end
$timescale
	1ps
$end

$scope module simple_soma_sm_vhd_vec_tst $end
$var wire 1 ! avs_m0_address [7] $end
$var wire 1 " avs_m0_address [6] $end
$var wire 1 # avs_m0_address [5] $end
$var wire 1 $ avs_m0_address [4] $end
$var wire 1 % avs_m0_address [3] $end
$var wire 1 & avs_m0_address [2] $end
$var wire 1 ' avs_m0_address [1] $end
$var wire 1 ( avs_m0_address [0] $end
$var wire 1 ) avs_m0_response_spike [1] $end
$var wire 1 * avs_m0_response_spike [0] $end
$var wire 1 + avs_m0_waitrequest $end
$var wire 1 , avs_m0_write_spike $end
$var wire 1 - avs_m0_writedata_spike_time [7] $end
$var wire 1 . avs_m0_writedata_spike_time [6] $end
$var wire 1 / avs_m0_writedata_spike_time [5] $end
$var wire 1 0 avs_m0_writedata_spike_time [4] $end
$var wire 1 1 avs_m0_writedata_spike_time [3] $end
$var wire 1 2 avs_m0_writedata_spike_time [2] $end
$var wire 1 3 avs_m0_writedata_spike_time [1] $end
$var wire 1 4 avs_m0_writedata_spike_time [0] $end
$var wire 1 5 avs_s0_address [7] $end
$var wire 1 6 avs_s0_address [6] $end
$var wire 1 7 avs_s0_address [5] $end
$var wire 1 8 avs_s0_address [4] $end
$var wire 1 9 avs_s0_address [3] $end
$var wire 1 : avs_s0_address [2] $end
$var wire 1 ; avs_s0_address [1] $end
$var wire 1 < avs_s0_address [0] $end
$var wire 1 = avs_s0_response_synapse [1] $end
$var wire 1 > avs_s0_response_synapse [0] $end
$var wire 1 ? avs_s0_write_synapse $end
$var wire 1 @ avs_s0_writedata_synapse [7] $end
$var wire 1 A avs_s0_writedata_synapse [6] $end
$var wire 1 B avs_s0_writedata_synapse [5] $end
$var wire 1 C avs_s0_writedata_synapse [4] $end
$var wire 1 D avs_s0_writedata_synapse [3] $end
$var wire 1 E avs_s0_writedata_synapse [2] $end
$var wire 1 F avs_s0_writedata_synapse [1] $end
$var wire 1 G avs_s0_writedata_synapse [0] $end
$var wire 1 H clk $end
$var wire 1 I rst $end

$scope module i1 $end
$var wire 1 J gnd $end
$var wire 1 K vcc $end
$var wire 1 L unknown $end
$var wire 1 M devoe $end
$var wire 1 N devclrn $end
$var wire 1 O devpor $end
$var wire 1 P ww_devoe $end
$var wire 1 Q ww_devclrn $end
$var wire 1 R ww_devpor $end
$var wire 1 S ww_clk $end
$var wire 1 T ww_rst $end
$var wire 1 U ww_avs_m0_address [7] $end
$var wire 1 V ww_avs_m0_address [6] $end
$var wire 1 W ww_avs_m0_address [5] $end
$var wire 1 X ww_avs_m0_address [4] $end
$var wire 1 Y ww_avs_m0_address [3] $end
$var wire 1 Z ww_avs_m0_address [2] $end
$var wire 1 [ ww_avs_m0_address [1] $end
$var wire 1 \ ww_avs_m0_address [0] $end
$var wire 1 ] ww_avs_m0_waitrequest $end
$var wire 1 ^ ww_avs_m0_write_spike $end
$var wire 1 _ ww_avs_m0_writedata_spike_time [7] $end
$var wire 1 ` ww_avs_m0_writedata_spike_time [6] $end
$var wire 1 a ww_avs_m0_writedata_spike_time [5] $end
$var wire 1 b ww_avs_m0_writedata_spike_time [4] $end
$var wire 1 c ww_avs_m0_writedata_spike_time [3] $end
$var wire 1 d ww_avs_m0_writedata_spike_time [2] $end
$var wire 1 e ww_avs_m0_writedata_spike_time [1] $end
$var wire 1 f ww_avs_m0_writedata_spike_time [0] $end
$var wire 1 g ww_avs_m0_response_spike [1] $end
$var wire 1 h ww_avs_m0_response_spike [0] $end
$var wire 1 i ww_avs_s0_address [7] $end
$var wire 1 j ww_avs_s0_address [6] $end
$var wire 1 k ww_avs_s0_address [5] $end
$var wire 1 l ww_avs_s0_address [4] $end
$var wire 1 m ww_avs_s0_address [3] $end
$var wire 1 n ww_avs_s0_address [2] $end
$var wire 1 o ww_avs_s0_address [1] $end
$var wire 1 p ww_avs_s0_address [0] $end
$var wire 1 q ww_avs_s0_write_synapse $end
$var wire 1 r ww_avs_s0_writedata_synapse [7] $end
$var wire 1 s ww_avs_s0_writedata_synapse [6] $end
$var wire 1 t ww_avs_s0_writedata_synapse [5] $end
$var wire 1 u ww_avs_s0_writedata_synapse [4] $end
$var wire 1 v ww_avs_s0_writedata_synapse [3] $end
$var wire 1 w ww_avs_s0_writedata_synapse [2] $end
$var wire 1 x ww_avs_s0_writedata_synapse [1] $end
$var wire 1 y ww_avs_s0_writedata_synapse [0] $end
$var wire 1 z ww_avs_s0_response_synapse [1] $end
$var wire 1 { ww_avs_s0_response_synapse [0] $end
$var wire 1 | \avs_s0_address[0]~input_o\ $end
$var wire 1 } \avs_s0_address[1]~input_o\ $end
$var wire 1 ~ \avs_s0_address[2]~input_o\ $end
$var wire 1 !! \avs_s0_address[3]~input_o\ $end
$var wire 1 "! \avs_s0_address[4]~input_o\ $end
$var wire 1 #! \avs_s0_address[5]~input_o\ $end
$var wire 1 $! \avs_s0_address[6]~input_o\ $end
$var wire 1 %! \avs_s0_address[7]~input_o\ $end
$var wire 1 &! \avs_s0_writedata_synapse[7]~input_o\ $end
$var wire 1 '! \avs_s0_writedata_synapse[6]~input_o\ $end
$var wire 1 (! \avs_s0_writedata_synapse[5]~input_o\ $end
$var wire 1 )! \avs_s0_writedata_synapse[4]~input_o\ $end
$var wire 1 *! \avs_s0_writedata_synapse[3]~input_o\ $end
$var wire 1 +! \avs_s0_writedata_synapse[2]~input_o\ $end
$var wire 1 ,! \avs_s0_writedata_synapse[1]~input_o\ $end
$var wire 1 -! \avs_s0_writedata_synapse[0]~input_o\ $end
$var wire 1 .! \avs_s0_write_synapse~input_o\ $end
$var wire 1 /! \rst~input_o\ $end
$var wire 1 0! \avs_m0_response_spike[0]~input_o\ $end
$var wire 1 1! \avs_m0_response_spike[1]~input_o\ $end
$var wire 1 2! \clk~input_o\ $end
$var wire 1 3! \avs_m0_waitrequest~input_o\ $end
$var wire 1 4! \~QUARTUS_CREATED_GND~I_combout\ $end
$upscope $end
$upscope $end
$enddefinitions $end
#0
$dumpvars
0+
1,
0?
0H
0I
0J
1K
xL
1M
1N
1O
1P
1Q
1R
0S
0T
0]
1^
0q
0|
0}
0~
0!!
0"!
0#!
0$!
0%!
0&!
0'!
0(!
0)!
0*!
0+!
0,!
0-!
0.!
0/!
00!
01!
02!
03!
x4!
0)
0*
05
06
07
08
09
0:
0;
0<
0@
0A
0B
0C
0D
0E
0F
0G
0!
0"
0#
0$
0%
0&
0'
1(
0-
0.
0/
00
11
02
03
14
0=
0>
0U
0V
0W
0X
0Y
0Z
0[
1\
0_
0`
0a
0b
1c
0d
0e
1f
0g
0h
0i
0j
0k
0l
0m
0n
0o
0p
0r
0s
0t
0u
0v
0w
0x
0y
0z
0{
$end
#5000
1H
1S
12!
#10000
0H
0S
02!
#15000
1H
1S
12!
#20000
0H
1I
0S
1T
1/!
02!
#25000
1H
1S
12!
#30000
0H
0S
02!
#35000
1H
1S
12!
#40000
0H
0I
0S
0T
0/!
02!
#45000
1H
1S
12!
#50000
0H
1?
1E
1G
0S
1q
1y
1w
1+!
1-!
1.!
02!
#55000
1H
1S
12!
#60000
0H
0S
02!
#65000
1H
1S
12!
#70000
0H
0?
0E
0G
0S
0q
0y
0w
0+!
0-!
0.!
02!
#75000
1H
1S
12!
#80000
0H
0S
02!
#85000
1H
1S
12!
#90000
0H
0S
02!
#95000
1H
1S
12!
#100000
0H
1?
1E
1G
0S
1q
1y
1w
1+!
1-!
1.!
02!
#105000
1H
1S
12!
#110000
0H
1I
0S
1T
1/!
02!
#115000
1H
1S
12!
#120000
0H
0I
0?
0E
0G
0S
0T
0q
0y
0w
0+!
0-!
0.!
0/!
02!
#125000
1H
1S
12!
#130000
0H
0S
02!
#135000
1H
1S
12!
#140000
0H
0S
02!
#145000
1H
1S
12!
#150000
0H
0S
02!
#155000
1H
1S
12!
#160000
0H
0S
02!
#165000
1H
1S
12!
#170000
0H
0S
02!
#175000
1H
1S
12!
#180000
0H
0S
02!
#185000
1H
1S
12!
#190000
0H
0S
02!
#195000
1H
1S
12!
#200000
0H
0S
02!
#205000
1H
1S
12!
#210000
0H
0S
02!
#215000
1H
1S
12!
#220000
0H
0S
02!
#225000
1H
1S
12!
#230000
0H
0S
02!
#235000
1H
1S
12!
#240000
0H
0S
02!
#245000
1H
1S
12!
#250000
0H
0S
02!
#255000
1H
1S
12!
#260000
0H
0S
02!
#265000
1H
1S
12!
#270000
0H
0S
02!
#275000
1H
1S
12!
#280000
0H
0S
02!
#285000
1H
1S
12!
#290000
0H
0S
02!
#295000
1H
1S
12!
#300000
0H
0S
02!
#305000
1H
1S
12!
#310000
0H
0S
02!
#315000
1H
1S
12!
#320000
0H
0S
02!
#325000
1H
1S
12!
#330000
0H
0S
02!
#335000
1H
1S
12!
#340000
0H
0S
02!
#345000
1H
1S
12!
#350000
0H
0S
02!
#355000
1H
1S
12!
#360000
0H
0S
02!
#365000
1H
1S
12!
#370000
0H
0S
02!
#375000
1H
1S
12!
#380000
0H
0S
02!
#385000
1H
1S
12!
#390000
0H
0S
02!
#395000
1H
1S
12!
#400000
0H
0S
02!
#405000
1H
1S
12!
#410000
0H
0S
02!
#415000
1H
1S
12!
#420000
0H
0S
02!
#425000
1H
1S
12!
#430000
0H
0S
02!
#435000
1H
1S
12!
#440000
0H
0S
02!
#445000
1H
1S
12!
#450000
0H
0S
02!
#455000
1H
1S
12!
#460000
0H
0S
02!
#465000
1H
1S
12!
#470000
0H
0S
02!
#475000
1H
1S
12!
#480000
0H
0S
02!
#485000
1H
1S
12!
#490000
0H
0S
02!
#495000
1H
1S
12!
#500000
0H
0S
02!
#505000
1H
1S
12!
#510000
0H
0S
02!
#515000
1H
1S
12!
#520000
0H
0S
02!
#525000
1H
1S
12!
#530000
0H
0S
02!
#535000
1H
1S
12!
#540000
0H
0S
02!
#545000
1H
1S
12!
#550000
0H
0S
02!
#555000
1H
1S
12!
#560000
0H
0S
02!
#565000
1H
1S
12!
#570000
0H
0S
02!
#575000
1H
1S
12!
#580000
0H
0S
02!
#585000
1H
1S
12!
#590000
0H
0S
02!
#595000
1H
1S
12!
#600000
0H
0S
02!
#605000
1H
1S
12!
#610000
0H
0S
02!
#615000
1H
1S
12!
#620000
0H
0S
02!
#625000
1H
1S
12!
#630000
0H
0S
02!
#635000
1H
1S
12!
#640000
0H
0S
02!
#645000
1H
1S
12!
#650000
0H
0S
02!
#655000
1H
1S
12!
#660000
0H
0S
02!
#665000
1H
1S
12!
#670000
0H
0S
02!
#675000
1H
1S
12!
#680000
0H
0S
02!
#685000
1H
1S
12!
#690000
0H
0S
02!
#695000
1H
1S
12!
#700000
0H
0S
02!
#705000
1H
1S
12!
#710000
0H
0S
02!
#715000
1H
1S
12!
#720000
0H
0S
02!
#725000
1H
1S
12!
#730000
0H
0S
02!
#735000
1H
1S
12!
#740000
0H
0S
02!
#745000
1H
1S
12!
#750000
0H
0S
02!
#755000
1H
1S
12!
#760000
0H
0S
02!
#765000
1H
1S
12!
#770000
0H
0S
02!
#775000
1H
1S
12!
#780000
0H
0S
02!
#785000
1H
1S
12!
#790000
0H
0S
02!
#795000
1H
1S
12!
#800000
0H
0S
02!
#805000
1H
1S
12!
#810000
0H
0S
02!
#815000
1H
1S
12!
#820000
0H
0S
02!
#825000
1H
1S
12!
#830000
0H
0S
02!
#835000
1H
1S
12!
#840000
0H
0S
02!
#845000
1H
1S
12!
#850000
0H
0S
02!
#855000
1H
1S
12!
#860000
0H
0S
02!
#865000
1H
1S
12!
#870000
0H
0S
02!
#875000
1H
1S
12!
#880000
0H
0S
02!
#885000
1H
1S
12!
#890000
0H
0S
02!
#895000
1H
1S
12!
#900000
0H
0S
02!
#905000
1H
1S
12!
#910000
0H
0S
02!
#915000
1H
1S
12!
#920000
0H
0S
02!
#925000
1H
1S
12!
#930000
0H
0S
02!
#935000
1H
1S
12!
#940000
0H
0S
02!
#945000
1H
1S
12!
#950000
0H
0S
02!
#955000
1H
1S
12!
#960000
0H
0S
02!
#965000
1H
1S
12!
#970000
0H
0S
02!
#975000
1H
1S
12!
#980000
0H
0S
02!
#985000
1H
1S
12!
#990000
0H
0S
02!
#995000
1H
1S
12!
